{
  "projectId": "SYN-402-QA",
  "createdBy": "syntasa-qa",
  "credential": {
    "username": "syn-devops-sa@syntasa.com",
    "accessKey": "AKIAILF22P56H4MHJ72Q",
    "secretKey": "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",
    "region": "us-east-1"
  },
  "vpc": {
    "name": "SYN-402-QA",
    "cidrBlock": "10.0.0.0/16",
    "hostnameEnabled": true
  },
  "internetGatewayName": "SYN-402-QA-igw",
  "subnets": [
    {
      "name": "SYN-402-QA-ec2-subnet",
      "cidrBlock": "10.0.1.0/24",
      "externalAccess": true
    },
    {
      "name": "SYN-402-QA-emr-subnet",
      "cidrBlock": "10.0.2.0/24",
      "externalAccess": false
    }
  ],
  "routeTables": [
    {
      "name": "SYN-402-QA-ec2-rt",
      "assignedSubnetName": "SYN-402-QA-ec2-subnet",
      "internetAccess": true
    },
    {
      "name": "SYN-402-QA-emr-rt",
      "assignedSubnetName": "SYN-402-QA-emr-subnet",
      "internetAccess": true
    }
  ],
  "serviceAccount": {
    "username": "SYN-402-QA-sa",
    "userPermissions": [
      "arn:aws:iam::aws:policy/AmazonEC2FullAccess",
      "arn:aws:iam::aws:policy/AmazonS3FullAccess",
      "arn:aws:iam::aws:policy/service-role/AmazonElasticMapReduceforEC2Role",
      "arn:aws:iam::aws:policy/AmazonAthenaFullAccess",
      "arn:aws:iam::aws:policy/service-role/AWSGlueServiceRole",
      "arn:aws:iam::aws:policy/service-role/AWSGlueServiceRole",
      "arn:aws:iam::aws:policy/AWSGlueConsoleFullAccess"
    ],
    "keyFileName": "SYN-402-QA-sa-key"
  },
  "bucket": {
    "syntasaBucketFolders": [
      "syn-cluster-config",
      "syn-cluster-data",
      "syn-cluster-logs",
      "syn-installation-files"
    ]
  },
  "ec2InstanceProfile": {
    "instanceProfileName": "SYN-402-QA-ec2-instance-profile",
    "instanceRoleName": "SYN-402-QA-ec2-role",
    "roleDescription": "SYN-402-QA - This role provides the Syntasa SA account with the required permissions.",
    "role": {
      "Version": "2008-10-17",
      "Statement": {
        "Sid": "",
        "Effect": "Allow",
        "Principal": {
          "Service": [
            "s3.amazonaws.com"
          ]
        },
        "Action": "sts:AssumeRole"
      }
    },
    "instancePolicyName": "SYN-402-QA-ec2-policy",
    "policy": {
      "Version": "2012-10-17",
      "Statement": {
        "Sid": "",
        "Effect": "Allow",
        "Action": "s3:*",
        "Resource": [
          "arn:aws:s3:::syn-adidas",
          "arn:aws:s3:::syn-adidas/*"
        ]
      }
    }
  },
  "securityGroups": [
    {
      "name": "SYN-402-QA-sg",
      "description": "SYN-402-QA - Security Group for Syntasa EC2 Instances",
      "appSecurityGroup" : true,
      "ipPermissions": [
        {
          "assignedSubnetName": "SYN-402-QA-ec2-subnet",
          "cidr": "10.0.0.0/16",
          "protocol": "-1",
          "port": -1
        },
        {
          "assignedSubnetName": "SYN-402-QA-ec2-subnet",
          "cidr": "184.185.47.18/32",
          "protocol": "-1",
          "port": -1
        },
        {
          "assignedSubnetName": "SYN-402-QA-ec2-subnet",
          "cidr": "72.66.23.186/32",
          "protocol": "-1",
          "port": -1
        }
      ]
    },
    {
      "name": "SYN-402-QA-emr-master-sg",
      "description": "SYN-402-QA - Security Group for Syntasa EMR Master Nodes",
      "appSecurityGroup" : false,
      "ipPermissions": [
        {
          "assignedSubnetName": "SYN-402-QA-emr-subnet",
          "cidr": "10.0.0.0/16",
          "protocol": "-1",
          "port": -1
        }
      ]
    },
    {
      "name": "SYN-402-QA-emr-slave-sg",
      "description": "SYN-402-QA - Security Group for Syntasa EMR Slave Nodes",
      "appSecurityGroup" : false,
      "ipPermissions": [
        {
          "assignedSubnetName": "SYN-402-QA-emr-subnet",
          "cidr": "10.0.0.0/16",
          "protocol": "-1",
          "port": -1
        }
      ]
    }
  ],
  "appNode": {
    "name" : "SYN-402-QA-app-node",
    "ec2InstanceType": "m4.2xlarge",
    "assignedSubnetName": "SYN-402-QA-ec2-subnet",
    "assignedSecurityGroupName" : "SYN-402-QA-sg",
    "startupScript": {
      "unencoded": null,
      "encoded": null,
      "filePath": "C:/devtools/opt/syntasa/service/config/startup-script.sh"
    }
  },
  "database": {
    "name" : "AUTOMATION TEST",
    "instanceType" : "",
    "engine" : "MySQL",
    "port" : 3306,
    "publiclyAvailable" : false,
    "multiAZ" : false,
    "allocatedStorage" : 50,
    "storageEncryption" : false,
    "autoMinorVersionUpdate" : true,
    "backupRetentionPeriod" : 30,
    "masterUsername" : "test",
    "masterPassword" : "AnotherTest123!!",
    "vpcSecuirtyGroups" : [
      "SYN-402-QA-sg"
    ]
  }
}