{
  "adminEmail" : "syntasa.cloud@gmail.com",
  "projectName" : "syntasa-kaushik-test",
  "gcpRegion" : "us-east1",
  "accountEmail" : "",
  "accountPassword" : "",
  "requiredApis" : [
    "Compute Engine API",
    "Cloud Dataproc API",
    "Google Cloud SQL",
    "Cloud SQL Admin API",
    "Service Management API",
    "BigQuery API",
    "BigQuery Data Transfer API",
    "Cloud Resource Manager API",
    "Google Cloud Storage"
  ],
  "requiredRoles" : [
    "editor"
  ],
  "requiredSubnets" : [
    {"subnetName" : "compute-subnet","subnetCidr" : "10.10.0.0/16"},
    {"subnetName" : "dataproc-subnet","subnetCidr" : "10.11.0.0/16"}
  ],
  "requiredFirewallRules" : [
    {"name":"test-firewall-ssh","protocol":"tcp","port":"22","cidr":"184.185.47.18/32","ingress":true},
    {"name":"test-subnet-ssh","protocol":"tcp","port":"22","cidr":"10.10.0.0/16","ingress":true},
    {"name":"test-subnet-ssh","protocol":"tcp","port":"22","cidr":"10.11.0.0/16","ingress":true},
    {"name":"test-internet-access","protocol":"","port":"","cidr":"0.0.0.0/0","ingress":false}
  ],
  "requiredInstances" : [{
      "instanceName":"syntasa-app-server",
      "imageFamily":"centos-7",
      "imageProject":"centos-cloud",
      "machineType":"g1-small",
      "scopes":"userinfo-email,cloud-platform",
      "startupScript":"C:/devtools/opt/syntasa/service/config/startup-script.sh",
      "zone":"us-east1-b",
      "network":"compute-subnet"
  }],
  "requiredDatabases" : [{
      "name" : "syntasa-db",
      "tier" : "db-g1-small",
      "version" : "MYSQL_5_7",
      "type" : "SECOND_GEN",
      "password" : "Test123!@#"
  }]
}

